[gd_scene load_steps=2 format=2]

[sub_resource type="RectangleShape2D" id=1]

[node name="InvisibleBorder" type="StaticBody2D"]

[node name="CollisionShape2D" type="CollisionShape2D" parent="."]
shape = SubResource( 1 )
